<?xml version="1.0"?>
<svg style="" version="1.1" xmlns="http://www.w3.org/2000/svg" viewBox="0 0 24 24">
 <path d="m12.102 2.6253 8.84 3.15-1.34 11.7-7.5 4.15-7.5-4.15-1.34-11.7 8.84-3.15m0 2.1l-5.53 12.4h2.06l1.11-2.78h4.7l1.11 2.78h2.05l-5.5-12.4m1.62 7.9h-3.23l1.61-3.87z" fill="#ffca28"/>
</svg>
