<?xml version="1.0"?>
<svg version="1.1" xmlns="http://www.w3.org/2000/svg" viewBox="0 0 24 24">
    <path d="M2.856,10.768c0,4.5 3.225,8.238 7.482,9.07l0,2.647c5.534,-0.834 10.799,-5.535 10.799,-10.994c0,-5.459 -4.294,-9.97 -9.034,-9.97c-4.741,0 -9.247,4.136 -9.247,9.247Zm10.16,4.756c-0.454,-0.633 -0.365,-1.554 0.049,-2.521c0.636,0.187 1.553,0.824 1.917,1.637c0.244,0.543 0.002,1.181 -0.541,1.425c-0.543,0.244 -1.078,-0.057 -1.425,-0.541Zm-3.926,-0.848c0.307,-0.734 0.828,-1.448 1.836,-1.728c0.401,0.766 0.599,1.841 0.171,2.516c-0.319,0.502 -0.843,0.827 -1.397,0.609c-0.555,-0.217 -0.84,-0.848 -0.61,-1.397Zm-2.129,-3.208c0.8,-0.327 1.89,-0.214 2.617,0.226c-0.291,0.925 -1.164,1.542 -1.754,1.749c-0.591,0.207 -1.379,-0.021 -1.576,-0.583c-0.197,-0.562 0.133,-1.155 0.713,-1.392Zm9.265,1.975c-0.899,-0.285 -1.431,-0.823 -1.914,-1.872c0.941,-0.458 1.954,-0.552 2.673,-0.146c0.558,0.314 0.915,0.859 0.706,1.417c-0.21,0.557 -0.855,0.795 -1.465,0.601Zm-8.273,-5.578c0.902,0.321 1.257,0.989 1.649,1.772c-0.797,0.423 -1.7,0.502 -2.603,0.121c-0.594,-0.252 -1.007,-0.87 -0.794,-1.426c0.214,-0.556 1.14,-0.684 1.748,-0.467Zm6.936,-1.393c-0.296,0.95 -0.865,1.565 -1.884,1.802c-0.448,-0.82 -0.625,-1.621 -0.117,-2.604c0.285,-0.551 0.866,-0.863 1.419,-0.641c0.552,0.221 0.767,0.852 0.582,1.443Zm-3.864,-0.846c0.373,0.672 0.388,1.832 -0.025,2.637c-0.869,-0.181 -1.601,-0.797 -2.004,-1.709c-0.241,-0.544 0.073,-1.3 0.625,-1.523c0.552,-0.224 1.115,0.074 1.404,0.595Z" fill="#4caf50"/>
</svg>
