<?xml version="1.0"?>
<svg version="1.1" xmlns="http://www.w3.org/2000/svg" viewBox="0 0 24 24">
    <path d="M12.431,22.383c-3.86,0 -6.99,-3.639 -6.99,-8.129c0,-9.319 7.847,-13.232 7.847,-13.232c0,0 -0.982,5.238 1.683,7.318c2.365,1.847 4.105,4.25 4.105,6.363c0,4.232 -2.784,7.68 -6.645,7.68l0,0Z" fill="#9575cd"/>
</svg>
