<?xml version="1.0"?>
<svg version="1.1" xmlns="http://www.w3.org/2000/svg" viewBox="0 0 24 24">
    <path d="M12,2l10,10l-10,10l-10,-10l10,-10Zm1.591,13.231c-0.53,-0.36 -2.652,-0.36 -3.182,0c-0.531,0.36 -0.531,1.802 0,2.162c0.53,0.36 2.652,0.36 3.182,0c0.531,-0.36 0.531,-1.802 0,-2.162Zm-0.559,-0.716c0.002,-0.01 0.547,-3.936 0.656,-5.243c0.073,-0.866 0.567,-2.174 0,-2.609c-0.566,-0.435 -2.832,-0.435 -3.398,0c-0.566,0.435 -0.071,1.743 0,2.609c0.107,1.309 0.641,5.243 0.641,5.243l2.101,0Z" fill="#f93f3f"/>
</svg>
