<?xml version="1.0" encoding="UTF-8" standalone="no"?>
<!DOCTYPE svg PUBLIC "-//W3C//DTD SVG 1.1//EN" "http://www.w3.org/Graphics/SVG/1.1/DTD/svg11.dtd">
<svg width="100%" height="100%" viewBox="0 0 24 24" version="1.1" xmlns="http://www.w3.org/2000/svg" xmlns:xlink="http://www.w3.org/1999/xlink" xml:space="preserve" style="fill-rule:evenodd;clip-rule:evenodd;stroke-linejoin:round;stroke-miterlimit:1.41421;">
    <path d="M16.854,22.758l-6.39,-3.69l0,-7.378l6.39,-3.69l6.39,3.69l0,7.378l-6.39,3.69Zm1.334,-5.087l0.011,-0.006l0,-3.05l-1.374,-0.792l-1.373,0.792l0,3.046l-2.483,1.419l-0.006,-0.002l0,-5.991l3.92,-2.263l3.919,2.263l0,5.981l-2.614,-1.397Z" style="fill:#77a939;"/>
    <rect x="2.5" y="10" width="6" height="2" style="fill:#c8e6b4;"/>
    <rect x="2.5" y="14" width="6" height="2" style="fill:#c8e6b4;"/>
    <rect x="2.5" y="18" width="6" height="2" style="fill:#c8e6b4;"/>
    <path id="folder.2e..-outline" d="M8.7,1.8l-3.2,0l-0.8,-0.8l-2.4,0c-0.444,0 -0.8,0.356 -0.8,0.8l0,4.8c0,0.442 0.358,0.8 0.8,0.8l6.4,0c0.442,0 0.8,-0.358 0.8,-0.8l0,-4c0,-0.444 -0.36,-0.8 -0.8,-0.8l0,0Zm0,4.8l-6.4,0l0,-4l6.4,0" style="fill:#c8e5b3;fill-rule:nonzero;"/>
</svg>
