<?xml version="1.0" encoding="UTF-8" standalone="no"?>
<!DOCTYPE svg PUBLIC "-//W3C//DTD SVG 1.1//EN" "http://www.w3.org/Graphics/SVG/1.1/DTD/svg11.dtd">
<svg width="100%" height="100%" viewBox="0 0 24 24" version="1.1" xmlns="http://www.w3.org/2000/svg" xmlns:xlink="http://www.w3.org/1999/xlink" xml:space="preserve" style="fill-rule:evenodd;clip-rule:evenodd;stroke-linejoin:round;stroke-miterlimit:1.41421;">
    <path d="M13.03,3.39c0.536,0 0.971,0.434 0.971,0.97c0,0.67 0,1.44 0,1.44l-4,0c0,0 0,-0.771 0,-1.441c0,-0.535 0.434,-0.969 0.97,-0.969l2.059,0Zm6.97,2.41l-4,0c0,0 0,-1.545 0,-2.665c0,-0.627 -0.508,-1.135 -1.135,-1.135c-1.517,0 -4.19,0 -5.714,0c-0.635,0 -1.15,0.515 -1.15,1.149c0,1.119 0,2.651 0,2.651l-4.001,0c-1.11,0 -2,0.845 -2,1.9l0,10.45c0,1.042 0.904,1.9 2,1.9l16,0c1.098,0 1.628,-1.059 2,-1.9c0.667,-1.508 2,-7.15 2,-7.15l-18,0l0,5l-1.89,2l0,-10l17.89,0c0,0 0,-0.296 0,-0.3c0,-1.055 -0.899,-1.9 -2,-1.9Z" style="fill:#ff7043;"/>
</svg>
