<?xml version="1.0" encoding="UTF-8" standalone="no"?>
<!DOCTYPE svg PUBLIC "-//W3C//DTD SVG 1.1//EN" "http://www.w3.org/Graphics/SVG/1.1/DTD/svg11.dtd">
<svg width="100%" height="100%" viewBox="0 0 24 24" version="1.1" xmlns="http://www.w3.org/2000/svg" xmlns:xlink="http://www.w3.org/1999/xlink" xml:space="preserve" style="fill-rule:evenodd;clip-rule:evenodd;">
    <path id="path2" d="M10,20l-6,0c-1.11,0 -2,-0.9 -2,-2l0,-12c0,-1.11 0.89,-2 2,-2l6,0l2,2l7,0c1.097,0 2,0.903 2,2l-17,0l0,10l2,-2l0.14,-6l5.86,0l-2,10Z" style="fill:#ec407a;fill-rule:nonzero;"/>
    <path id="path4" d="M23.143,11.59c-0.39,-1.527 -2.922,-2.029 -5.319,-1.177c-1.426,0.506 -2.97,1.302 -4.08,2.34c-1.32,1.235 -1.531,2.309 -1.444,2.758c0.306,1.585 2.477,2.621 3.37,3.389l0,0.004c-0.264,0.13 -2.189,1.104 -2.64,2.101c-0.476,1.051 0.076,1.806 0.441,1.907c1.131,0.315 2.291,-0.251 2.915,-1.181c0.602,-0.898 0.552,-2.057 0.29,-2.634c0.361,-0.095 0.781,-0.137 1.316,-0.075c1.508,0.176 1.804,1.118 1.748,1.512c-0.057,0.394 -0.373,0.611 -0.479,0.677c-0.106,0.065 -0.138,0.088 -0.129,0.136c0.013,0.071 0.062,0.069 0.152,0.053c0.124,-0.021 0.792,-0.32 0.82,-1.048c0.037,-0.924 -0.848,-1.957 -2.416,-1.93c-0.645,0.011 -1.051,0.073 -1.345,0.182c-0.022,-0.025 -0.043,-0.05 -0.066,-0.074c-0.969,-1.034 -2.761,-1.765 -2.685,-3.155c0.028,-0.505 0.203,-1.836 3.442,-3.45c2.653,-1.322 4.778,-0.958 5.145,-0.152c0.524,1.152 -1.135,3.293 -3.891,3.602c-1.049,0.118 -1.602,-0.289 -1.74,-0.441c-0.145,-0.159 -0.166,-0.166 -0.22,-0.137c-0.088,0.049 -0.033,0.19 0,0.274c0.082,0.214 0.42,0.594 0.995,0.783c0.507,0.166 1.739,0.257 3.23,-0.319c1.669,-0.647 2.973,-2.443 2.59,-3.945Zm-7.103,7.783c0.125,0.463 0.112,0.895 -0.018,1.285c-0.014,0.044 -0.03,0.086 -0.047,0.129c-0.017,0.042 -0.036,0.084 -0.056,0.126c-0.099,0.206 -0.233,0.4 -0.397,0.578c-0.5,0.545 -1.198,0.752 -1.497,0.578c-0.323,-0.187 -0.161,-0.956 0.418,-1.568c0.623,-0.659 1.52,-1.082 1.52,-1.082l-0.002,-0.003c0.026,-0.014 0.052,-0.028 0.079,-0.043Z" style="fill:#ec407a;fill-rule:nonzero;stroke:#ec407a;stroke-width:0.52px;"/>
</svg>
