<?xml version="1.0" encoding="UTF-8" standalone="no"?>
<!DOCTYPE svg PUBLIC "-//W3C//DTD SVG 1.1//EN" "http://www.w3.org/Graphics/SVG/1.1/DTD/svg11.dtd">
<svg width="100%" height="100%" viewBox="0 0 24 24" version="1.1" xmlns="http://www.w3.org/2000/svg" xmlns:xlink="http://www.w3.org/1999/xlink" xml:space="preserve" style="fill-rule:evenodd;clip-rule:evenodd;stroke-linejoin:round;stroke-miterlimit:1.41421;">
    <path d="M10,4l-6,0c-1.11,0 -2,0.89 -2,2l0,12c0,1.097 0.903,2 2,2l3,0l5,-12l10,0c0,-1.11 -0.9,-2 -2,-2l-8,0l-2,-2Z" style="fill:#0077b1;fill-rule:nonzero;"/>
    <path d="M17.293,17.786c-1.266,0 -2.308,-1.042 -2.308,-2.308c0,-1.266 1.042,-2.307 2.308,-2.307c1.266,0 2.308,1.041 2.308,2.307c0,1.266 -1.042,2.308 -2.308,2.308m4.899,-1.668c0.026,-0.211 0.046,-0.422 0.046,-0.64c0,-0.217 -0.02,-0.435 -0.046,-0.659l1.391,-1.075c0.125,-0.099 0.158,-0.277 0.079,-0.422l-1.318,-2.281c-0.08,-0.145 -0.258,-0.204 -0.403,-0.145l-1.641,0.659c-0.343,-0.257 -0.699,-0.481 -1.115,-0.646l-0.244,-1.747c-0.026,-0.158 -0.164,-0.277 -0.329,-0.277l-2.638,0c-0.164,0 -0.303,0.119 -0.329,0.277l-0.244,1.747c-0.416,0.165 -0.772,0.389 -1.114,0.646l-1.642,-0.659c-0.145,-0.059 -0.323,0 -0.402,0.145l-1.319,2.281c-0.086,0.145 -0.046,0.323 0.079,0.422l1.391,1.075c-0.026,0.224 -0.046,0.442 -0.046,0.659c0,0.218 0.02,0.429 0.046,0.64l-1.391,1.094c-0.125,0.099 -0.165,0.277 -0.079,0.422l1.319,2.282c0.079,0.145 0.257,0.197 0.402,0.145l1.642,-0.666c0.342,0.264 0.698,0.488 1.114,0.653l0.244,1.747c0.026,0.158 0.165,0.277 0.329,0.277l2.638,0c0.165,0 0.303,-0.119 0.329,-0.277l0.244,-1.747c0.416,-0.172 0.772,-0.389 1.115,-0.653l1.641,0.666c0.145,0.052 0.323,0 0.403,-0.145l1.318,-2.282c0.079,-0.145 0.046,-0.323 -0.079,-0.422l-1.391,-1.094l0,0Z" style="fill:#4fc3f7;"/>
</svg>
