<?xml version="1.0"?>
<svg version="1.1" xmlns="http://www.w3.org/2000/svg" viewBox="0 0 24 24">
	<path d="M8.369,15.941c-0.266,-2.699 -0.483,-4.941 -0.481,-4.983c0.002,-0.042 -0.225,-0.077 -0.505,-0.077l-0.508,0l0,-0.966l0,-0.966l3.966,0l0,-1.875l0,-1.876l1.871,-1.124c1.14,-0.685 1.978,-1.125 2.144,-1.125c0.4,0 0.866,0.506 0.866,0.939c0,0.189 -0.057,0.422 -0.127,0.517c-0.07,0.095 -0.722,0.53 -1.449,0.966l-1.322,0.792l-0.029,1.393l-0.028,1.393l3.972,0l0,1.932l-0.49,0l-0.49,0l-0.495,4.983l-0.495,4.983l-2.957,0l-2.958,0l-0.485,-4.906l0,0Z" style="fill:#e53935;fill-rule:nonzero;"/>
	<path d="M13.237,15.986c-0.009,0.013 -0.025,0.055 -0.048,0.125c-0.024,0.07 -0.052,0.158 -0.086,0.264c-0.033,0.105 -0.07,0.223 -0.109,0.354c-0.039,0.131 -0.079,0.265 -0.12,0.401c-0.041,0.136 -0.081,0.269 -0.119,0.4c-0.038,0.131 -0.072,0.249 -0.102,0.355c-0.03,0.105 -0.055,0.194 -0.075,0.265c-0.02,0.072 -0.033,0.114 -0.037,0.127c-0.011,0.043 -0.029,0.089 -0.054,0.141c-0.024,0.052 -0.053,0.101 -0.087,0.147c-0.033,0.046 -0.07,0.084 -0.11,0.115c-0.04,0.03 -0.082,0.045 -0.124,0.045c-0.071,0 -0.123,-0.024 -0.155,-0.071c-0.033,-0.048 -0.049,-0.135 -0.049,-0.262c0,-0.018 0,-0.037 0,-0.055c0,-0.019 0.001,-0.039 0.003,-0.06c0.003,-0.042 0.019,-0.121 0.051,-0.238c0.031,-0.116 0.068,-0.247 0.112,-0.394c0.043,-0.147 0.09,-0.299 0.14,-0.456c0.05,-0.157 0.096,-0.298 0.136,-0.422c-0.118,0.132 -0.247,0.264 -0.385,0.394c-0.138,0.131 -0.28,0.249 -0.425,0.353c-0.145,0.105 -0.291,0.19 -0.439,0.256c-0.147,0.066 -0.289,0.099 -0.425,0.099c-0.156,0 -0.29,-0.034 -0.403,-0.103c-0.113,-0.069 -0.206,-0.159 -0.279,-0.27c-0.074,-0.111 -0.129,-0.236 -0.164,-0.376c-0.036,-0.14 -0.054,-0.28 -0.054,-0.42c0,-0.019 0,-0.036 0,-0.052c0,-0.016 0.001,-0.032 0.003,-0.048c0.014,-0.253 0.05,-0.514 0.109,-0.781c0.059,-0.267 0.137,-0.532 0.233,-0.796c0.096,-0.265 0.207,-0.523 0.333,-0.775c0.126,-0.253 0.263,-0.491 0.411,-0.716c0.149,-0.225 0.307,-0.431 0.474,-0.62c0.167,-0.189 0.339,-0.352 0.515,-0.488c0.177,-0.136 0.355,-0.242 0.534,-0.319c0.18,-0.077 0.358,-0.115 0.534,-0.115c0.203,0 0.399,0.056 0.589,0.166c0.19,0.111 0.367,0.291 0.532,0.54c0.038,0.055 0.062,0.111 0.072,0.168c0.01,0.057 0.015,0.11 0.015,0.161c0,0.118 -0.028,0.212 -0.085,0.281c-0.057,0.069 -0.124,0.103 -0.203,0.103c-0.071,0 -0.137,-0.037 -0.199,-0.113c-0.061,-0.075 -0.13,-0.183 -0.206,-0.323c-0.071,-0.127 -0.15,-0.219 -0.236,-0.275c-0.085,-0.057 -0.179,-0.086 -0.279,-0.086c-0.156,0 -0.323,0.065 -0.5,0.195c-0.178,0.129 -0.354,0.3 -0.528,0.513c-0.174,0.213 -0.34,0.456 -0.5,0.729c-0.159,0.274 -0.301,0.554 -0.423,0.841c-0.123,0.287 -0.221,0.569 -0.293,0.848c-0.073,0.279 -0.109,0.529 -0.109,0.751c0,0.074 0.005,0.15 0.015,0.228c0.01,0.078 0.029,0.149 0.057,0.212c0.028,0.064 0.066,0.116 0.114,0.157c0.048,0.041 0.109,0.061 0.182,0.061c0.083,0 0.177,-0.027 0.281,-0.083c0.105,-0.055 0.214,-0.128 0.327,-0.218c0.112,-0.09 0.226,-0.191 0.339,-0.305c0.114,-0.114 0.22,-0.229 0.318,-0.345c0.099,-0.116 0.186,-0.228 0.261,-0.335c0.076,-0.107 0.133,-0.2 0.171,-0.279l0.311,-0.932c0.038,-0.1 0.088,-0.172 0.149,-0.214c0.062,-0.042 0.125,-0.064 0.189,-0.064c0.032,0 0.063,0.006 0.094,0.016c0.031,0.011 0.059,0.027 0.084,0.05c0.024,0.022 0.044,0.051 0.058,0.087c0.015,0.036 0.022,0.077 0.022,0.125c0,0.127 -0.011,0.246 -0.033,0.357c-0.023,0.111 -0.051,0.219 -0.086,0.325c-0.034,0.106 -0.073,0.212 -0.115,0.319c-0.042,0.107 -0.084,0.219 -0.124,0.335Z" style="fill:#fff;fill-rule:nonzero;stroke:#fff;stroke-width:0.05px;"/>
</svg>