<?xml version="1.0"?>
<svg version="1.1" xmlns="http://www.w3.org/2000/svg" viewBox="0 0 24 24">
    <circle cx="6.479" cy="16.623" r="4.586" style="fill:#bc342d;"/>
    <circle cx="17.319" cy="16.623" r="4.586" style="fill:#864e9f;"/>
    <circle cx="11.867" cy="7.387" r="4.586" style="fill:#328a22;"/>
</svg>
