<?xml version="1.0"?>
<svg version="1.1" xmlns="http://www.w3.org/2000/svg" viewBox="0 0 24 24">
    <path d="M11,7l0,5.11l4.71,2.79l0.79,-1.28l-4,-2.37l0,-4.25m0,-5c-3.53,0 -6.59,1.92 -8.23,4.77l-2.27,-2.27l0,6.5l6.5,0l-2.75,-2.75c1.21,-2.52 3.75,-4.25 6.75,-4.25c4.114,0 7.5,3.386 7.5,7.5c0,4.114 -3.386,7.5 -7.5,7.5c-3.27,0 -6.03,-2.09 -7.06,-5l-2.1,0c1.1,4.03 4.77,7 9.16,7c5.24,0 9.5,-4.25 9.5,-9.5c0,-5.212 -4.288,-9.5 -9.5,-9.5Z" fill="#930df2"/>
</svg>
