<?xml version="1.0"?>
<svg version="1.1" xmlns="http://www.w3.org/2000/svg" viewBox="0 0 24 24">
    <defs>
        <linearGradient id="_Linear1" x1="0" y1="0" x2="1" y2="0" gradientUnits="userSpaceOnUse" gradientTransform="matrix(1.16655e-15,18.0645,-19.0511,1.10613e-15,11.9543,3.32102)"><stop offset="0" style="stop-color:#f29100;stop-opacity:1"/><stop offset="1" style="stop-color:#ec670f;stop-opacity:1"/></linearGradient>
    </defs>
    <path d="M11.886,20.104c-0.058,-0.123 -0.232,-0.441 -0.32,-0.544c-0.19,-0.222 -0.235,-0.239 -0.291,-0.52c-0.097,-0.49 -0.355,-1.378 -0.658,-1.991c-0.157,-0.316 -0.418,-0.582 -0.656,-0.811c-0.209,-0.202 -0.678,-0.54 -0.76,-0.523c-0.767,0.153 -1.005,0.905 -1.365,1.501c-0.2,0.329 -0.411,0.61 -0.569,0.96c-0.145,0.323 -0.132,0.68 -0.381,0.956c-0.255,0.285 -0.421,0.587 -0.546,0.954c-0.023,0.07 -0.091,0.804 -0.164,0.977l1.14,-0.081c1.062,0.073 0.755,0.48 2.413,0.391l2.618,-0.081c-0.081,-0.24 -0.193,-0.518 -0.236,-0.608c-0.073,-0.152 -0.165,-0.449 -0.225,-0.58l0,0Zm7.821,-16.783c1.442,0 2.611,1.169 2.611,2.612l0,15.345c-1.859,0.428 -2.983,-0.616 -5.053,-0.421c-0.818,0.076 -2.092,0.006 -3.007,0.142c-0.5,0.074 -0.885,0.212 -1.269,0.277c-0.003,-0.005 -0.005,-0.011 -0.008,-0.016c-0.311,-0.624 -0.51,-1.346 -0.613,-2.038c-0.026,-0.178 0.025,-0.355 -0.029,-0.523c-0.046,-0.146 -0.151,-0.159 -0.22,-0.278c-0.183,-0.311 -0.371,-0.715 -0.389,-1.096c-0.016,-0.342 -0.142,-0.652 -0.159,-0.991c-0.008,-0.164 0.011,-0.333 0.005,-0.495c-0.003,-0.079 -0.007,-0.147 -0.023,-0.233c-0.004,-0.021 -0.018,-0.108 -0.024,-0.143l0.042,-0.106c-0.019,-0.037 0.364,-0.025 0.478,-0.024c0.193,0.003 0.375,0.013 0.568,0.022c0.394,0.02 0.753,0.015 1.137,-0.045c0.855,-0.132 1.249,-0.481 1.45,-0.626c0.785,-0.567 1.145,-1.493 1.145,-1.492c0.13,-0.29 0.129,-0.806 0.407,-1.037c0.327,-0.272 0.877,-0.253 1.253,-0.42c0.22,-0.098 0.379,-0.151 0.603,-0.105c0.167,0.035 0.467,0.228 0.536,-0.043c-0.055,-0.036 -0.077,-0.102 -0.107,-0.138c0.31,-0.031 0.006,-0.75 -0.117,-0.893c-0.189,-0.222 -0.505,-0.323 -0.841,-0.412c-0.399,-0.106 -0.761,-0.228 -1.137,-0.155c-0.656,0.129 -0.607,-0.247 -0.994,-0.247c-0.464,0 -1.29,0.023 -1.433,0.474c-0.066,0.211 -0.135,0.22 -0.25,0.381c-0.098,0.139 0.017,0.261 -0.032,0.419c-0.051,0.163 -0.126,0.735 -0.205,0.934c-0.132,0.338 -0.29,0.759 -0.581,0.759c-0.408,0.049 -0.729,0.065 -1.06,-0.055c-0.2,-0.073 -0.534,-0.186 -0.699,-0.256c-0.762,-0.32 -0.887,-0.672 -0.887,-0.672c-0.082,-0.135 -0.298,-0.353 -0.378,-0.637c-0.089,-0.313 -0.239,-0.575 -0.299,-0.738c-0.063,-0.169 -0.213,-0.439 -0.331,-0.732c-0.15,-0.374 -0.363,-0.654 -0.518,-0.792c-0.238,-0.212 -0.457,-0.54 -0.939,-0.444c-0.086,0.017 -0.399,0.031 -0.639,0.232c-0.162,0.136 -0.214,0.418 -0.364,0.656c-0.087,0.137 -0.24,0.53 -0.381,0.859c-0.097,0.227 -0.142,0.398 -0.248,0.482c-0.082,0.066 -0.184,0.15 -0.307,0.104c-0.076,-0.029 -0.158,-0.077 -0.241,-0.142c-0.111,-0.087 -0.365,-0.518 -0.52,-0.836c-0.135,-0.276 -0.423,-0.689 -0.589,-0.913c-0.24,-0.321 -0.381,-0.403 -0.735,-0.403c-0.759,0 -0.817,0.426 -1.151,1.044c-0.147,0.272 -0.2,0.703 -0.495,1.041c-0.168,0.193 -0.705,0.988 -1.079,1.123l0,-5.697c0,-1.443 1.169,-2.612 2.611,-2.612l15.505,0Zm-13.189,12.677c-0.179,-0.018 -0.345,-0.038 -0.519,-0.073c-0.324,-0.066 -0.678,-0.129 -0.998,-0.206c-0.194,-0.047 -0.84,-0.275 -0.98,-0.34c-0.329,-0.152 -0.548,-0.564 -0.805,-0.522c-0.165,0.027 -0.325,0.084 -0.427,0.249c-0.083,0.135 -0.111,0.368 -0.169,0.523c-0.067,0.181 -0.183,0.35 -0.284,0.522c-0.186,0.316 -0.522,0.602 -0.666,0.91c-0.029,0.063 -0.055,0.134 -0.079,0.208l0,3.52c0.168,0.029 0.345,0.064 0.542,0.117c1.456,0.388 1.812,0.421 3.24,0.258l0.134,-0.018c0.109,-0.227 0.194,-1.002 0.264,-1.242c0.056,-0.184 0.132,-0.33 0.16,-0.518c0.027,-0.178 -0.002,-0.348 -0.017,-0.51c-0.041,-0.406 0.295,-0.551 0.455,-0.899c0.145,-0.316 0.228,-0.675 0.348,-0.997c0.115,-0.309 0.294,-0.747 0.599,-0.902c-0.037,-0.044 -0.638,-0.064 -0.798,-0.08l0,0Z" style="fill:url(#_Linear1);stroke:#000;stroke-width:0.41px;"/>
</svg>
