<?xml version="1.0"?>
<svg version="1.1" xmlns="http://www.w3.org/2000/svg" viewBox="0 0 24 24">
    <path id="path4" d="M6,2l8,0l6,6l0,12c0,1.097 -0.903,2 -2,2l-12,0c-1.097,0 -2,-0.903 -2,-2l0,-16c0,-1.097 0.903,-2 2,-2m7,1.5l0,5.5l5.5,0l-5.5,-5.5m-5,7.5l0,2l1,0l0,6l-1,0l0,1l4,0l0,-1l-1,0l0,-2l2,0c1.646,0 3,-1.354 3,-3c0,-1.646 -1.354,-3 -3,-3l-5,0m5,2c0.549,0 1,0.451 1,1c0,0.549 -0.451,1 -1,1l-2,0l0,-2l2,0Z" fill="#d14524"/>
</svg>
