<?xml version="1.0"?>
<svg version="1.1" xmlns="http://www.w3.org/2000/svg" viewBox="0 0 24 24">
	<path id="path1948" d="M11.878,1.714c-0.849,0.004 -1.659,0.076 -2.372,0.201c-2.099,0.367 -2.481,1.137 -2.481,2.555l0,1.873l4.962,0l0,0.625l-4.962,0l-1.862,0c-1.442,0 -2.704,0.858 -3.099,2.492c-0.456,1.872 -0.476,3.04 0,4.995c0.352,1.456 1.195,2.492 2.637,2.492l1.706,0l0,-2.245c0,-1.623 1.417,-3.054 3.099,-3.054l4.957,0c1.379,0 2.481,-1.125 2.481,-2.497l0,-4.681c0,-1.332 -1.135,-2.333 -2.481,-2.555c-0.853,-0.141 -1.737,-0.204 -2.585,-0.201Zm-2.684,1.507c0.513,0 0.931,0.422 0.931,0.94c0,0.516 -0.418,0.933 -0.931,0.933c-0.514,0 -0.931,-0.417 -0.931,-0.933c0,-0.518 0.417,-0.94 0.931,-0.94Z" fill="#0d79f2"/>
	<path id="path1950" d="M17.562,6.936l0,2.182c0,1.693 -1.448,3.117 -3.099,3.117l-4.957,0c-1.357,0 -2.481,1.151 -2.481,2.498l0,4.68c0,1.332 1.17,2.116 2.481,2.498c1.571,0.457 3.077,0.54 4.957,0c1.249,-0.358 2.481,-1.079 2.481,-2.498l0,-1.873l-4.957,0l0,-0.625l7.437,0c1.443,0 1.98,-0.996 2.481,-2.492c0.518,-1.539 0.496,-3.02 0,-4.995c-0.356,-1.422 -1.037,-2.492 -2.481,-2.492l-1.862,0Zm-2.787,11.853c0.514,0 0.931,0.417 0.931,0.934c0,0.518 -0.417,0.939 -0.931,0.939c-0.513,0 -0.931,-0.421 -0.931,-0.939c0,-0.517 0.418,-0.934 0.931,-0.934Z" fill="#ffd835"/>
</svg>
