<?xml version="1.0" encoding="UTF-8" standalone="no"?>
<!DOCTYPE svg PUBLIC "-//W3C//DTD SVG 1.1//EN" "http://www.w3.org/Graphics/SVG/1.1/DTD/svg11.dtd">
<svg width="100%" height="100%" viewBox="0 0 24 24" version="1.1" xmlns="http://www.w3.org/2000/svg" xmlns:xlink="http://www.w3.org/1999/xlink" xml:space="preserve" style="fill-rule:evenodd;clip-rule:evenodd;stroke-linejoin:round;stroke-miterlimit:1.41421;">
    <path d="M10.417,3c-2.993,0 -5.417,1.292 -5.417,2.889c0,1.596 2.424,2.888 5.417,2.888c2.993,0 5.416,-1.292 5.416,-2.888c0,-1.597 -2.423,-2.889 -5.416,-2.889m-5.417,4.333l0,2.167c0,1.596 2.424,2.889 5.417,2.889c2.993,0 5.416,-1.293 5.416,-2.889l0,-2.167c0,1.596 -2.423,2.89 -5.416,2.89c-2.993,0 -5.417,-1.294 -5.417,-2.89m0,3.611l0,2.167c0,1.597 2.424,2.889 5.417,2.889c2.993,0 5.416,-1.292 5.416,-2.889l0,-2.167c0,1.597 -2.423,2.889 -5.416,2.889c-2.993,0 -5.417,-1.292 -5.417,-2.889Z" style="fill:#f2af0d;fill-rule:nonzero;"/>
    <path d="M22,9l-12,12l12,0l0,-12Zm-1.6,4l-6.4,6.4l6.4,0l0,-6.4Z" style="fill:#f2af0d;"/>
</svg>
