<?xml version="1.0"?>
<svg version="1.1" xmlns="http://www.w3.org/2000/svg" viewBox="0 0 24 24">
    <path d="M18,22l-12,0c-1.097,0 -2,-0.903 -2,-2l0,-16c0,-1.097 0.903,-2 2,-2l8,0l6,6l0,12c0,1.097 -0.903,2 -2,2Zm-9,-3l0,-3l-3,0l0,3l3,0Zm4.5,0l0,-3l-3,0l0,3l3,0Zm4.5,0l0,-3l-3,0l0,3l3,0Zm-9,-5l0,-3l-3,0l0,3l3,0Zm4.5,0l0,-3l-3,0l0,3l3,0Zm4.5,0l0,-3l-3,0l0,3l3,0Zm-5,-10.5l0,5.5l5.5,0l-5.5,-5.5Z" fill="#8bc34a"/>
</svg>
