<?xml version="1.0" encoding="UTF-8" standalone="no"?>
<!DOCTYPE svg PUBLIC "-//W3C//DTD SVG 1.1//EN" "http://www.w3.org/Graphics/SVG/1.1/DTD/svg11.dtd">
<svg width="100%" height="100%" viewBox="0 0 24 24" version="1.1" xmlns="http://www.w3.org/2000/svg" xmlns:xlink="http://www.w3.org/1999/xlink" xml:space="preserve" style="fill-rule:evenodd;clip-rule:evenodd;stroke-linejoin:round;stroke-miterlimit:1.41421;">
    <path d="M12,3l8.106,4.5l0,9l-8.106,4.5l-8.106,-4.5l0,-9l8.106,-4.5Z" style="fill:#41b883;fill-rule:nonzero;"/>
    <path d="M4.989,8.056l2.909,0l4.102,6.944l4.207,-6.944l2.804,0l-7.011,11.944l-7.011,-11.944Z" style="fill:#fff;fill-rule:nonzero;"/>
    <path d="M10.387,8.056l1.613,2.944l2,-2.944l2.207,0l-4.207,6.944l-4.102,-6.944l2.489,0Z" style="fill:#35495e;fill-rule:nonzero;"/>
</svg>
