<?xml version="1.0"?>
<svg version="1.1" xmlns="http://www.w3.org/2000/svg" viewBox="0 0 24 24">
    <path d="M21,16.5c0,0.38 -0.21,0.71 -0.53,0.88l-7.9,4.44c-0.16,0.12 -0.36,0.18 -0.57,0.18c-0.21,0 -0.41,-0.06 -0.57,-0.18l-7.9,-4.44c-0.32,-0.17 -0.53,-0.5 -0.53,-0.88l0,-9c0,-0.38 0.21,-0.71 0.53,-0.88l7.9,-4.44c0.16,-0.12 0.36,-0.18 0.57,-0.18c0.21,0 0.41,0.06 0.57,0.18l7.9,4.44c0.32,0.17 0.53,0.5 0.53,0.88l0,9Z" fill="#90caf9"/>
    <path d="M15.803,13.978c0,0.16 -0.088,0.3 -0.224,0.372l-3.343,1.879c-0.068,0.051 -0.152,0.076 -0.241,0.076c-0.089,0 -0.174,-0.025 -0.241,-0.076l-3.343,-1.879c-0.136,-0.072 -0.225,-0.212 -0.225,-0.372l0,-3.809c0,-0.161 0.089,-0.3 0.225,-0.372l3.343,-1.879c0.067,-0.051 0.152,-0.076 0.241,-0.076c0.089,0 0.173,0.025 0.241,0.076l3.343,1.879c0.136,0.072 0.224,0.211 0.224,0.372l0,3.809Z" fill="#42a5f5"/>
</svg>
